[
  {
    "model": "riderstatus.rider",
    "pk": 1,
    "fields": {
      "bib_number": 306,
      "rfid5digit": -1,
      "first_name": "Rider",
      "last_name": "One",
      "gender": "M",
      "age": 20,
      "phone": "",
      "emerg_contact": "",
      "emerg_phone": "",
      "tshirt_size": "",
      "breakfast": null,
      "update_count": 1,
      "inquiry_count_public": 20,
      "inquiry_count_private": 10
    }
  },
  {
    "model": "riderstatus.rider",
    "pk": 2,
    "fields": {
      "bib_number": 400,
      "rfid5digit": -1,
      "first_name": "Rider",
      "last_name": "Two",
      "gender": "W",
      "age": 25,
      "phone": "",
      "emerg_contact": "",
      "emerg_phone": "",
      "tshirt_size": "",
      "breakfast": null,
      "update_count": 1,
      "inquiry_count_public": 2,
      "inquiry_count_private": 0
    }
  }
]
